<?xml version="1.0" encoding="utf-8"?>
<!-- Generator: Adobe Illustrator 21.0.0, SVG Export Plug-In . SVG Version: 6.00 Build 0)  -->
<svg version="1.1" id="图层_1" xmlns="http://www.w3.org/2000/svg" xmlns:xlink="http://www.w3.org/1999/xlink" x="0px" y="0px"
	 viewBox="0 0 56 56" enable-background="new 0 0 56 56" xml:space="preserve">
<g>
	<g>
		<rect x="8" y="12" width="4" height="32"/>
		<rect x="44" y="12" width="4" height="32"/>
	</g>
	<g>
		<polygon points="38,26 38,20 30,28 38,36 38,30 44,30 44,26 		"/>
		<polygon points="26,28 18,20 18,26 12,26 12,30 18,30 18,36 		"/>
	</g>
</g>
</svg>
